%YAML 1.1
%TAG !u! tag:unity3d.com,2011:
--- !u!1045 &1
EditorBuildSettings:
  m_ObjectHideFlags: 0
  serializedVersion: 2
  m_Scenes:
  - enabled: 1
    path: Assets/Scenes/MenuScene.unity
    guid: 6da6d1f91d49c5042849c20d05d95b79
  - enabled: 1
    path: Assets/Scenes/GameScene.unity
    guid: 99c9720ab356a0642a771bea13969a05
  - enabled: 1
    path: Assets/Scenes/CreditsScene.unity
    guid: c8843ecc6b9598d43ae5788f8c230992
  m_configObjects: {}
